{
    "packageRules": [
        {
            "matchUpdateTypes": [
                "patch"
            ],
            "automerge": true,
            "platformAutomerge": true,
            "gitLabIgnoreApprovals": true,
            "ignoreTests": true
        },
        {
            "matchUpdateTypes": [
                "minor"
            ],
            "allowedVersions": ">=1.0",
            "automerge": true,
            "platformAutomerge": true,
            "gitLabIgnoreApprovals": true,
            "ignoreTests": true
        }
    ]
}
